[gd_scene load_steps=3 format=2]

[ext_resource path="res://Client/Player/Player.tscn" type="PackedScene" id=1]
[ext_resource path="res://Client/Enemy/Enemy.tscn" type="PackedScene" id=2]

[node name="World" type="Node2D"]

[node name="YSort" type="YSort" parent="."]

[node name="Player" parent="YSort" instance=ExtResource( 1 )]
position = Vector2( 160, 80 )

[node name="Enemy" parent="YSort" instance=ExtResource( 2 )]
position = Vector2( 77.912, 59.9323 )

[node name="Enemy2" parent="YSort" instance=ExtResource( 2 )]
position = Vector2( 173.055, 126.232 )

[node name="Enemy3" parent="YSort" instance=ExtResource( 2 )]
position = Vector2( 238.231, 40.8289 )

[node name="MapCollisionBorder" type="StaticBody2D" parent="."]

[node name="CollisionPolygon2D" type="CollisionPolygon2D" parent="MapCollisionBorder"]
polygon = PoolVector2Array( 24, 24, 96, 16, 176, 32, 240, 16, 304, 40, 280, 96, 296, 144, 248, 160, 208, 152, 160, 160, 112, 160, 72, 144, 32, 160, 8, 128, 24, 72, 16, 32, 0, 0, 0, 176, 320, 176, 320, 0, 0, 0, 16, 32 )
