[gd_scene load_steps=2 format=2]

[ext_resource path="res://Client/World/Layers/SoftCollision/SoftCollision.gd" type="Script" id=1]

[node name="SoftCollision" type="Area2D"]
collision_layer = 512
collision_mask = 512
script = ExtResource( 1 )

[node name="CollisionShape2D" type="CollisionShape2D" parent="."]
